Hari_project
…
    compiled_data = data %>% filter(year==2020) %>% full_join(i2)

Joining with `by = join_by(country, year)`

    compiled_data

# A tibble: 196 × 18
# Groups:   year [1]
   country  alpha_2_code alpha_3_code numeric_code iso3c  year Population..total
   <chr>    <chr>        <chr>               <int> <chr> <int>             <int>
 1 Albania  AL           ALB                     8 ALB    2020           2837849
 2 Algeria  DZ           DZA                    12 DZA    2020          43451666
 3 Angola   AO           AGO                    24 AGO    2020          33428486
 4 Armenia  AM           ARM                    51 ARM    2020           2805608
 5 Austral… AU           AUS                    36 AUS    2020          25655289
 6 Austria  AT           AUT                    40 AUT    2020           8916864
 7 Azerbai… AZ           AZE                    31 AZE    2020          10093121
 8 Bahrain  BH           BHR                    48 BHR    2020           1477469
 9 Banglad… BD           BGD                    50 BGD    2020         167420951
10 Belarus  BY           BLR                   112 BLR    2020           9379952
# ℹ 186 more rows
# ℹ 11 more variables: GDP.per.capita..constant.2015.US.. <dbl>,
#   GNI..current.US.. <dbl>, Inflation..consumer.prices..annual... <dbl>,
#   Life.expectancy.at.birth..total..years. <dbl>,
#   Military.expenditure....of.GDP. <dbl>, region <chr>,
#   population_million <dbl>, sex <chr>, maternal_value <int>, Code <int>,
#   indicator <chr>
…
